-------------------------------------------------------------------------------
Test set: by.stadnik.epam.dao.hibernateImpl.HibernateAuthorDAOImplTest
-------------------------------------------------------------------------------
Tests run: 8, Failures: 0, Errors: 0, Skipped: 0, Time elapsed: 4.791 sec
