-------------------------------------------------------------------------------
Test set: by.stadnik.epam.dao.eclipseLinkImpl.JPATagDAOImplTest
-------------------------------------------------------------------------------
Tests run: 9, Failures: 0, Errors: 0, Skipped: 2, Time elapsed: 1.425 sec
